{
  "processor": "sar",
  "api_url": "https://colhub.met.no/",
  "platformname": "Sentinel-1",
  "producttype": "GRD",
  "roi": {
    "coordinates": [
      [
        [
          7.8,
          77
        ],
        [
          7.8,
          77.5
        ],
        [
          7.3,
          77.5
        ],
        [
          7.3,
          77
        ],
        [
          7.8,
          77
        ]
      ]
    ],
    "type": "Polygon"
  },
  "crs": "EPSG:3857",
  "spatial_resolution": 100,
  "time_delta_hours": 24,
  "compress": "True",
  "sensoroperationalmode": "EW"
}
